…
    ## Rows: 32245 Columns: 63
    ## ── Column specification ────────────────────────────────────────────────────────
    ## Delimiter: ";"
    ## chr  (3): mes_ano, munic, Regiao
    ## dbl (60): CISP, mes, ano, AISP, RISP, mcirc, hom_doloso, lesao_corp_morte, l...
    ## 
    ## ℹ Use `spec()` to retrieve the full column specification for this data.
    ## ℹ Specify the column types or set `show_col_types = FALSE` to quiet this message.

# Limpando os dados e realizando diagnóstico

    ## `summarise()` has grouped output by 'AISP'. You can override using the
    ## `.groups` argument.

    ## # A tibble: 195 × 8
    ##    variables types   data_count missing_count missing_percent unique_count
    ##    <chr>     <chr>        <int>         <dbl>           <dbl>        <int>
    ##  1 AISP      numeric          4             0               0            1
    ##  2 AISP      numeric          4             0               0            1
    ##  3 AISP      numeric          4             0               0            1
    ##  4 AISP      numeric          4             0               0            1
    ##  5 AISP      numeric          4             0               0            1
    ##  6 AISP      numeric          4             0               0            1
    ##  7 AISP      numeric          4             0               0            1
    ##  8 AISP      numeric          4             0               0            1
    ##  9 AISP      numeric          4             0               0            1
    ## 10 AISP      numeric          4             0               0            1
    ## # ℹ 185 more rows
    ## # ℹ 2 more variables: unique_rate <dbl>, AISP <dbl>
…
