…
# Limpando os dados e realizando diagnóstico de dados faltantes

1.  Via diagnose, que já conhecemos, ou miss_var_summary da biblioteca
    naniar. Descrição estatística da distribuição de missing calculando
    as frequências relativas por variável

2.  Via visualização de dados faltantes através de um gráfico de barras
    percentual, gerado pela biblioteca naniar e função vis_miss

3.  Via ordenamento de variáveis com maior frequência de missing

<!-- -->

    ## # A tibble: 63 × 6
    ##    variables  types     missing_count missing_percent unique_count unique_rate
    ##    <chr>      <chr>             <int>           <dbl>        <int>       <dbl>
    ##  1 CISP       numeric               0               0          138    0.00428 
    ##  2 mes        numeric               0               0           12    0.000372
    ##  3 ano        numeric               0               0           20    0.000620
    ##  4 mes_ano    character             0               0          240    0.00744 
    ##  5 AISP       numeric               0               0           41    0.00127 
    ##  6 RISP       numeric               0               0            7    0.000217
    ##  7 munic      character             0               0           90    0.00279 
    ##  8 mcirc      numeric               0               0           90    0.00279 
    ##  9 Regiao     character             0               0            4    0.000124
    ## 10 hom_doloso numeric               0               0           40    0.00124 
    ## # ℹ 53 more rows

    ## # A tibble: 63 × 3
    ##    variable                   n_miss pct_miss
    ##    <chr>                       <int>    <num>
    ##  1 roubo_bicicleta             17389  53.9   
    ##  2 furto_bicicleta             17389  53.9   
    ##  3 posse_drogas                 4646  14.4   
    ##  4 trafico_drogas               4646  14.4   
    ##  5 apreensao_drogas_sem_autor   4646  14.4   
    ##  6 apf                          4646  14.4   
    ##  7 aaapai                       4646  14.4   
    ##  8 cmp                          4646  14.4   
    ##  9 cmba                         4646  14.4   
    ## 10 roubo_cx_eletronico            19   0.0589
    ## # ℹ 53 more rows
…
